{
  "workspaces": {
    "Nori-Maidens": {
      "main": {
        "id": "2efd410c0d64c84b",
        "type": "split",
        "children": [
          {
            "id": "f5a141b4f4bdab29",
            "type": "tabs",
            "dimension": 30.970149253731343,
            "children": [
              {
                "id": "071ac82b715ea330",
                "type": "leaf",
                "state": {
                  "type": "empty",
                  "state": {}
                }
              }
            ]
          },
          {
            "id": "e5d7724e2245bece",
            "type": "split",
            "dimension": 35.287846481876336,
            "children": [
              {
                "id": "84bf3b5559e90590",
                "type": "tabs",
                "dimension": 48.25581395348838,
                "children": [
                  {
                    "id": "eb021420a6f67051",
                    "type": "leaf",
                    "state": {
                      "type": "markdown",
                      "state": {
                        "file": "Campaigns/Nori Maidens/Sessions/Overview.md",
                        "mode": "source",
                        "source": false
                      }
                    }
                  }
                ]
              },
              {
                "id": "044edb05064dd08f",
                "type": "tabs",
                "dimension": 51.74418604651163,
                "children": [
                  {
                    "id": "6d0ccd6e41df176e",
                    "type": "leaf",
                    "pinned": true,
                    "state": {
                      "type": "markdown",
                      "state": {
                        "file": "Worlds/Terignyphtos/Overview.md",
                        "mode": "source",
                        "source": false
                      },
                      "pinned": true
                    }
                  }
                ]
              }
            ],
            "direction": "horizontal"
          },
          {
            "id": "49082d57d8dac987",
            "type": "tabs",
            "dimension": 33.74200426439232,
            "children": [
              {
                "id": "d1cd007b7e352825",
                "type": "leaf",
                "state": {
                  "type": "markdown",
                  "state": {
                    "file": "Campaigns/Nori Maidens/Overview.md",
                    "mode": "source",
                    "source": false
                  }
                }
              }
            ]
          }
        ],
        "direction": "vertical"
      },
      "left": {
        "id": "dc8a98b3ceec9bab",
        "type": "split",
        "children": [
          {
            "id": "50cf9592675e1ad3",
            "type": "tabs",
            "children": [
              {
                "id": "115ba0e36461f2e1",
                "type": "leaf",
                "state": {
                  "type": "file-explorer",
                  "state": {
                    "sortOrder": "alphabetical"
                  }
                }
              },
              {
                "id": "71f70d8b239c1f8d",
                "type": "leaf",
                "state": {
                  "type": "search",
                  "state": {
                    "query": "",
                    "matchingCase": false,
                    "explainSearch": false,
                    "collapseAll": false,
                    "extraContext": false,
                    "sortOrder": "alphabetical"
                  }
                }
              },
              {
                "id": "053bdea1ab674b34",
                "type": "leaf",
                "state": {
                  "type": "starred",
                  "state": {}
                }
              },
              {
                "id": "3db7567ffb666db8",
                "type": "leaf",
                "state": {
                  "type": "bookmarks",
                  "state": {}
                }
              }
            ]
          }
        ],
        "direction": "horizontal",
        "width": 265.5
      },
      "right": {
        "id": "105ad2be70bef3fc",
        "type": "split",
        "children": [
          {
            "id": "25cd69038478a437",
            "type": "tabs",
            "children": [
              {
                "id": "bede45b713e4a6e7",
                "type": "leaf",
                "state": {
                  "type": "backlink",
                  "state": {
                    "file": "Campaigns/Nori Maidens/Overview.md",
                    "collapseAll": false,
                    "extraContext": false,
                    "sortOrder": "alphabetical",
                    "showSearch": false,
                    "searchQuery": "",
                    "backlinkCollapsed": false,
                    "unlinkedCollapsed": true
                  }
                }
              },
              {
                "id": "2e94e4cc960d666a",
                "type": "leaf",
                "state": {
                  "type": "outgoing-link",
                  "state": {
                    "file": "Campaigns/Nori Maidens/Overview.md",
                    "linksCollapsed": false,
                    "unlinkedCollapsed": true
                  }
                }
              },
              {
                "id": "9f733afc539efee5",
                "type": "leaf",
                "state": {
                  "type": "tag",
                  "state": {
                    "sortOrder": "frequency",
                    "useHierarchy": true
                  }
                }
              },
              {
                "id": "e61aea4d99afe609",
                "type": "leaf",
                "state": {
                  "type": "outline",
                  "state": {
                    "file": "Campaigns/Nori Maidens/Overview.md"
                  }
                }
              }
            ]
          }
        ],
        "direction": "horizontal",
        "width": 200,
        "collapsed": true
      },
      "left-ribbon": {
        "hiddenItems": {
          "publish:Publish changes...": false,
          "switcher:Open quick switcher": false,
          "graph:Open graph view": false,
          "canvas:Create new canvas": false,
          "daily-notes:Open today's daily note": false,
          "templates:Insert template": false,
          "command-palette:Open command palette": false,
          "templater-obsidian:Templater": false,
          "dbfolder:Create a new database table": false,
          "obsidian-leaflet-plugin:Open Leaflet Map": false,
          "workspaces:Manage workspace layouts": false
        }
      },
      "active": "d1cd007b7e352825",
      "workspaces-plus:settings-v1": {
        "explorerFoldState": [
          "Campaigns",
          "Campaigns/Nori Maidens",
          "Worlds",
          "Worlds/Excuria/Locations/Other",
          "Worlds/Excuria/Lore",
          "Worlds/Excuria/Other",
          "Worlds/Humblewood",
          "Worlds/Terignyphtos/Locations/Buildings",
          "Worlds/Terignyphtos/Locations/Cities",
          "Worlds/Terignyphtos/Locations/Continents",
          "Worlds/Terignyphtos/Locations/Regions",
          "Worlds/Terignyphtos/Lore",
          "Worlds/Terignyphtos/Other/Items"
        ]
      }
    },
    "Faustian-Fellowship": {
      "main": {
        "id": "2efd410c0d64c84b",
        "type": "split",
        "children": [
          {
            "id": "f5a141b4f4bdab29",
            "type": "tabs",
            "dimension": 30.970149253731343,
            "children": [
              {
                "id": "734124eac462227d",
                "type": "leaf",
                "state": {
                  "type": "empty",
                  "state": {}
                }
              }
            ]
          },
          {
            "id": "e5d7724e2245bece",
            "type": "split",
            "dimension": 35.287846481876336,
            "children": [
              {
                "id": "84bf3b5559e90590",
                "type": "tabs",
                "dimension": 48.25581395348838,
                "children": [
                  {
                    "id": "c4e6c5ba9526d7dc",
                    "type": "leaf",
                    "pinned": true,
                    "state": {
                      "type": "markdown",
                      "state": {
                        "file": "Campaigns/Faustian Fellowship/Sessions/Overview.md",
                        "mode": "source",
                        "source": false
                      },
                      "pinned": true
                    }
                  }
                ]
              },
              {
                "id": "044edb05064dd08f",
                "type": "tabs",
                "dimension": 51.74418604651163,
                "children": [
                  {
                    "id": "d1cafca782fc22a3",
                    "type": "leaf",
                    "pinned": true,
                    "state": {
                      "type": "markdown",
                      "state": {
                        "file": "Worlds/Humblewood/Overview.md",
                        "mode": "source",
                        "source": false
                      },
                      "pinned": true
                    }
                  }
                ]
              }
            ],
            "direction": "horizontal"
          },
          {
            "id": "49082d57d8dac987",
            "type": "tabs",
            "dimension": 33.74200426439232,
            "children": [
              {
                "id": "e5e86d5959222858",
                "type": "leaf",
                "pinned": true,
                "state": {
                  "type": "markdown",
                  "state": {
                    "file": "Campaigns/Faustian Fellowship/Overview.md",
                    "mode": "source",
                    "source": false
                  },
                  "pinned": true
                }
              }
            ]
          }
        ],
        "direction": "vertical"
      },
      "left": {
        "id": "dc8a98b3ceec9bab",
        "type": "split",
        "children": [
          {
            "id": "50cf9592675e1ad3",
            "type": "tabs",
            "children": [
              {
                "id": "115ba0e36461f2e1",
                "type": "leaf",
                "state": {
                  "type": "file-explorer",
                  "state": {
                    "sortOrder": "alphabetical"
                  }
                }
              },
              {
                "id": "71f70d8b239c1f8d",
                "type": "leaf",
                "state": {
                  "type": "search",
                  "state": {
                    "query": "",
                    "matchingCase": false,
                    "explainSearch": false,
                    "collapseAll": false,
                    "extraContext": false,
                    "sortOrder": "alphabetical"
                  }
                }
              },
              {
                "id": "053bdea1ab674b34",
                "type": "leaf",
                "state": {
                  "type": "starred",
                  "state": {}
                }
              },
              {
                "id": "3db7567ffb666db8",
                "type": "leaf",
                "state": {
                  "type": "bookmarks",
                  "state": {}
                }
              }
            ]
          }
        ],
        "direction": "horizontal",
        "width": 265.5
      },
      "right": {
        "id": "105ad2be70bef3fc",
        "type": "split",
        "children": [
          {
            "id": "25cd69038478a437",
            "type": "tabs",
            "children": [
              {
                "id": "bede45b713e4a6e7",
                "type": "leaf",
                "state": {
                  "type": "backlink",
                  "state": {
                    "collapseAll": false,
                    "extraContext": false,
                    "sortOrder": "alphabetical",
                    "showSearch": false,
                    "searchQuery": "",
                    "backlinkCollapsed": false,
                    "unlinkedCollapsed": true
                  }
                }
              },
              {
                "id": "2e94e4cc960d666a",
                "type": "leaf",
                "state": {
                  "type": "outgoing-link",
                  "state": {
                    "linksCollapsed": false,
                    "unlinkedCollapsed": true
                  }
                }
              },
              {
                "id": "9f733afc539efee5",
                "type": "leaf",
                "state": {
                  "type": "tag",
                  "state": {
                    "sortOrder": "frequency",
                    "useHierarchy": true
                  }
                }
              },
              {
                "id": "e61aea4d99afe609",
                "type": "leaf",
                "state": {
                  "type": "outline",
                  "state": {}
                }
              }
            ]
          }
        ],
        "direction": "horizontal",
        "width": 200,
        "collapsed": true
      },
      "left-ribbon": {
        "hiddenItems": {
          "publish:Publish changes...": false,
          "switcher:Open quick switcher": false,
          "graph:Open graph view": false,
          "canvas:Create new canvas": false,
          "daily-notes:Open today's daily note": false,
          "templates:Insert template": false,
          "command-palette:Open command palette": false,
          "templater-obsidian:Templater": false,
          "dbfolder:Create a new database table": false,
          "obsidian-leaflet-plugin:Open Leaflet Map": false,
          "workspaces:Manage workspace layouts": false
        }
      },
      "active": "734124eac462227d",
      "workspaces-plus:settings-v1": {
        "explorerFoldState": [
          "Assets",
          "Campaigns",
          "Campaigns/Faustian Fellowship",
          "Campaigns/Nori Maidens",
          "Worlds",
          "Worlds/Excuria/Locations/Other",
          "Worlds/Excuria/Lore",
          "Worlds/Excuria/Other",
          "Worlds/Humblewood",
          "Worlds/Terignyphtos/Locations/Buildings",
          "Worlds/Terignyphtos/Locations/Cities",
          "Worlds/Terignyphtos/Locations/Continents",
          "Worlds/Terignyphtos/Locations/Regions",
          "Worlds/Terignyphtos/Lore",
          "Worlds/Terignyphtos/Other/Items"
        ]
      }
    },
    "Excurian-Explorers": {
      "main": {
        "id": "2efd410c0d64c84b",
        "type": "split",
        "children": [
          {
            "id": "f5a141b4f4bdab29",
            "type": "tabs",
            "dimension": 30.970149253731343,
            "children": [
              {
                "id": "51dbb63cb55e0ccd",
                "type": "leaf",
                "state": {
                  "type": "empty",
                  "state": {}
                }
              }
            ]
          },
          {
            "id": "e5d7724e2245bece",
            "type": "split",
            "dimension": 35.287846481876336,
            "children": [
              {
                "id": "84bf3b5559e90590",
                "type": "tabs",
                "dimension": 46.89922480620155,
                "children": [
                  {
                    "id": "7baf045874274e96",
                    "type": "leaf",
                    "state": {
                      "type": "markdown",
                      "state": {
                        "file": "Campaigns/Excurian Explorers/Sessions/Overview.md",
                        "mode": "source",
                        "source": false
                      }
                    }
                  }
                ]
              },
              {
                "id": "044edb05064dd08f",
                "type": "tabs",
                "dimension": 53.100775193798455,
                "children": [
                  {
                    "id": "c954e0e5c0bb1074",
                    "type": "leaf",
                    "pinned": true,
                    "state": {
                      "type": "markdown",
                      "state": {
                        "file": "Worlds/Excuria/Overview.md",
                        "mode": "source",
                        "source": false
                      },
                      "pinned": true
                    }
                  }
                ]
              }
            ],
            "direction": "horizontal"
          },
          {
            "id": "49082d57d8dac987",
            "type": "tabs",
            "dimension": 33.74200426439232,
            "children": [
              {
                "id": "8ccff9585ca57981",
                "type": "leaf",
                "pinned": true,
                "state": {
                  "type": "markdown",
                  "state": {
                    "file": "Campaigns/Excurian Explorers/Overview.md",
                    "mode": "source",
                    "source": false
                  },
                  "pinned": true
                }
              }
            ]
          }
        ],
        "direction": "vertical"
      },
      "left": {
        "id": "dc8a98b3ceec9bab",
        "type": "split",
        "children": [
          {
            "id": "50cf9592675e1ad3",
            "type": "tabs",
            "children": [
              {
                "id": "115ba0e36461f2e1",
                "type": "leaf",
                "state": {
                  "type": "file-explorer",
                  "state": {
                    "sortOrder": "alphabetical"
                  }
                }
              },
              {
                "id": "71f70d8b239c1f8d",
                "type": "leaf",
                "state": {
                  "type": "search",
                  "state": {
                    "query": "",
                    "matchingCase": false,
                    "explainSearch": false,
                    "collapseAll": false,
                    "extraContext": false,
                    "sortOrder": "alphabetical"
                  }
                }
              },
              {
                "id": "053bdea1ab674b34",
                "type": "leaf",
                "state": {
                  "type": "starred",
                  "state": {}
                }
              },
              {
                "id": "3db7567ffb666db8",
                "type": "leaf",
                "state": {
                  "type": "bookmarks",
                  "state": {}
                }
              }
            ]
          }
        ],
        "direction": "horizontal",
        "width": 265.5
      },
      "right": {
        "id": "105ad2be70bef3fc",
        "type": "split",
        "children": [
          {
            "id": "25cd69038478a437",
            "type": "tabs",
            "children": [
              {
                "id": "bede45b713e4a6e7",
                "type": "leaf",
                "state": {
                  "type": "backlink",
                  "state": {
                    "collapseAll": false,
                    "extraContext": false,
                    "sortOrder": "alphabetical",
                    "showSearch": false,
                    "searchQuery": "",
                    "backlinkCollapsed": false,
                    "unlinkedCollapsed": true
                  }
                }
              },
              {
                "id": "2e94e4cc960d666a",
                "type": "leaf",
                "state": {
                  "type": "outgoing-link",
                  "state": {
                    "linksCollapsed": false,
                    "unlinkedCollapsed": true
                  }
                }
              },
              {
                "id": "9f733afc539efee5",
                "type": "leaf",
                "state": {
                  "type": "tag",
                  "state": {
                    "sortOrder": "frequency",
                    "useHierarchy": true
                  }
                }
              },
              {
                "id": "e61aea4d99afe609",
                "type": "leaf",
                "state": {
                  "type": "outline",
                  "state": {}
                }
              }
            ]
          }
        ],
        "direction": "horizontal",
        "width": 200,
        "collapsed": true
      },
      "left-ribbon": {
        "hiddenItems": {
          "publish:Publish changes...": false,
          "switcher:Open quick switcher": false,
          "graph:Open graph view": false,
          "canvas:Create new canvas": false,
          "daily-notes:Open today's daily note": false,
          "templates:Insert template": false,
          "command-palette:Open command palette": false,
          "templater-obsidian:Templater": false,
          "dbfolder:Create a new database table": false,
          "obsidian-leaflet-plugin:Open Leaflet Map": false,
          "workspaces:Manage workspace layouts": false
        }
      },
      "active": "51dbb63cb55e0ccd",
      "workspaces-plus:settings-v1": {
        "explorerFoldState": [
          "Assets",
          "Campaigns",
          "Campaigns/Excurian Explorers",
          "Worlds",
          "Worlds/Excuria/Locations/Other",
          "Worlds/Excuria/Lore",
          "Worlds/Excuria/Other",
          "Worlds/Humblewood/Creatures",
          "Worlds/Humblewood/Creatures/Characters",
          "Worlds/Terignyphtos/Locations/Buildings",
          "Worlds/Terignyphtos/Locations/Cities",
          "Worlds/Terignyphtos/Locations/Continents",
          "Worlds/Terignyphtos/Locations/Regions",
          "Worlds/Terignyphtos/Lore",
          "Worlds/Terignyphtos/Other/Items"
        ]
      }
    }
  },
  "active": "Nori-Maidens"
}